1 0 8 0 0 0
python ./var.py 0 8 0 0 0 0 "." g01
2 0 14 0 3 0
python ./var.py 0 14 0 3 0 0 "." g02
python ./var.py 0 14 0 3 1 0 "." g03
1 0 8 1 0 0
python ./var.py 0 8 1 0 0 0 "." g04
3 0 13 10 14 0
python ./var.py 0 13 10 14 0 0 "." g05
python ./var.py 0 13 10 14 1 0 "." g06
python ./var.py 0 13 10 14 1 0 "." g07
2 10 0 0 23 1
python ./var.py 10 0 0 23 0 1 "." g08
python ./var.py 10 0 0 23 1 1 "." g09
4 15 0 2 18 1
python ./var.py 15 0 2 18 0 1 "." g10
python ./var.py 15 0 2 18 1 1 "." g11
python ./var.py 15 0 2 18 1 1 "." g12
python ./var.py 15 0 2 18 1 1 "." g13
4 9 0 12 16 2
python ./var.py 9 0 12 16 0 2 "." g14
python ./var.py 9 0 12 16 1 2 "." g15
python ./var.py 9 0 12 16 1 2 "." g16
python ./var.py 9 0 12 16 1 2 "." g17
2 17 14 0 30 0
python ./var.py 17 14 0 30 0 0 "." g18
python ./var.py 17 14 0 30 1 0 "." g19
2 17 11 0 29 1
python ./var.py 17 11 0 29 0 1 "." g20
python ./var.py 17 11 0 29 1 1 "." g21
4 3 4 18 15 0
python ./var.py 3 4 18 15 0 0 "." g22
python ./var.py 3 4 18 15 1 0 "." g23
python ./var.py 3 4 18 15 1 0 "." g24
python ./var.py 3 4 18 15 1 0 "." g25
4 11 5 11 23 1
python ./var.py 11 5 11 23 0 1 "." g26
python ./var.py 11 5 11 23 1 1 "." g27
python ./var.py 11 5 11 23 1 1 "." g28
python ./var.py 11 5 11 23 1 1 "." g29
4 12 2 18 20 2
python ./var.py 12 2 18 20 0 2 "." g30
python ./var.py 12 2 18 20 1 2 "." g31
python ./var.py 12 2 18 20 1 2 "." g32
python ./var.py 12 2 18 20 1 2 "." g33
